Bachelor
…
 ## Juan Pablo

## # A tibble: 117 x 4
##    Name                         Rating Season Episode
##    <chr>                         <dbl>  <dbl> <chr>  
##  1 Episode #13.1                   5.2     13 1      
##  2 Episode #13.2                   6.1     13 2      
##  3 Episode #13.4                   5.3     13 4      
##  4 Episode #13.5                   5.3     13 5      
##  5 Episode #13.6                   6.8     13 6      
##  6 The Women Tell All              5.2     13 8      
##  7 Season Finale                   5.7     13 9      
##  8 After the Final Rose            4.7     13 10     
##  9 After the Final Rose: Part 2    4.7     13 11     
## 10 On the Wings of Love            4.8     14 1      
## # ... with 107 more rows
…
 ## Arie

## # A tibble: 117 x 4
##    Name                         Rating Season Episode
##    <chr>                         <dbl>  <dbl> <chr>  
##  1 Episode #13.1                   5.2     13 1      
##  2 Episode #13.2                   6.1     13 2      
##  3 Episode #13.4                   5.3     13 4      
##  4 Episode #13.5                   5.3     13 5      
##  5 Episode #13.6                   6.8     13 6      
##  6 The Women Tell All              5.2     13 8      
##  7 Season Finale                   5.7     13 9      
##  8 After the Final Rose            4.7     13 10     
##  9 After the Final Rose: Part 2    4.7     13 11     
## 10 On the Wings of Love            4.8     14 1      
## # ... with 107 more rows
…
